﻿Compilazione avviata 25/10/2015 17:47:37.
     1>Progetto "C:\Users\Andrea\Desktop\Andrea\mie creazioni\Informatica\C\leggi_int\leggi_int\leggi_int.vcxproj" sul nodo 2 (destinazioni: Build).
     1>Link:
         leggi_int.vcxproj -> C:\Users\Andrea\Desktop\Andrea\mie creazioni\Informatica\C\leggi_int\Debug\leggi_int.exe
     1>Compilazione progetto "C:\Users\Andrea\Desktop\Andrea\mie creazioni\Informatica\C\leggi_int\leggi_int\leggi_int.vcxproj" (destinazioni: Build) completata.

Compilazione completata.

Tempo trascorso 00:00:00.03
