﻿Build started 10/11/2015 17:30:41.
     1>Project "C:\Users\s0000753177\Desktop\esercizio4_10_11_2015\esercizio4_10_11_2015\esercizio4_10_11_2015.vcxproj" on node 2 (build target(s)).
     1>InitializeBuildStatus:
         Creating "Debug\esercizio4_10_11_2015.unsuccessfulbuild" because "AlwaysCreate" was specified.
       ClCompile:
         C:\Program Files (x86)\Microsoft Visual Studio 10.0\VC\bin\CL.exe /c /ZI /nologo /W3 /WX- /Od /Oy- /D WIN32 /D _DEBUG /D _CONSOLE /D _UNICODE /D UNICODE /Gm /EHsc /RTC1 /MDd /GS /fp:precise /Zc:wchar_t /Zc:forScope /Fo"Debug\\" /Fd"Debug\vc100.pdb" /Gd /TC /analyze- /errorReport:prompt main.c
         main.c
     1>c:\users\s0000753177\desktop\esercizio4_10_11_2015\esercizio4_10_11_2015\main.c(19): warning C4996: 'scanf': This function or variable may be unsafe. Consider using scanf_s instead. To disable deprecation, use _CRT_SECURE_NO_WARNINGS. See online help for details.
                 c:\program files (x86)\microsoft visual studio 10.0\vc\include\stdio.h(304) : see declaration of 'scanf'
     1>c:\users\s0000753177\desktop\esercizio4_10_11_2015\esercizio4_10_11_2015\main.c(41): warning C4996: 'scanf': This function or variable may be unsafe. Consider using scanf_s instead. To disable deprecation, use _CRT_SECURE_NO_WARNINGS. See online help for details.
                 c:\program files (x86)\microsoft visual studio 10.0\vc\include\stdio.h(304) : see declaration of 'scanf'
       ManifestResourceCompile:
         All outputs are up-to-date.
       Link:
         C:\Program Files (x86)\Microsoft Visual Studio 10.0\VC\bin\link.exe /ERRORREPORT:PROMPT /OUT:"C:\Users\s0000753177\Desktop\esercizio4_10_11_2015\Debug\esercizio4_10_11_2015.exe" /INCREMENTAL /NOLOGO kernel32.lib user32.lib gdi32.lib winspool.lib comdlg32.lib advapi32.lib shell32.lib ole32.lib oleaut32.lib uuid.lib odbc32.lib odbccp32.lib /MANIFEST /ManifestFile:"Debug\esercizio4_10_11_2015.exe.intermediate.manifest" /MANIFESTUAC:"level='asInvoker' uiAccess='false'" /DEBUG /PDB:"C:\Users\s0000753177\Desktop\esercizio4_10_11_2015\Debug\esercizio4_10_11_2015.pdb" /SUBSYSTEM:CONSOLE /TLBID:1 /DYNAMICBASE /NXCOMPAT /IMPLIB:"C:\Users\s0000753177\Desktop\esercizio4_10_11_2015\Debug\esercizio4_10_11_2015.lib" /MACHINE:X86 Debug\esercizio4_10_11_2015.exe.embed.manifest.res
         Debug\main.obj
       Manifest:
         C:\Program Files (x86)\Microsoft SDKs\Windows\v7.0A\bin\mt.exe /nologo /verbose /out:"Debug\esercizio4_10_11_2015.exe.embed.manifest" /manifest Debug\esercizio4_10_11_2015.exe.intermediate.manifest
         All outputs are up-to-date.
       LinkEmbedManifest:
         All outputs are up-to-date.
         esercizio4_10_11_2015.vcxproj -> C:\Users\s0000753177\Desktop\esercizio4_10_11_2015\Debug\esercizio4_10_11_2015.exe
       FinalizeBuildStatus:
         Deleting file "Debug\esercizio4_10_11_2015.unsuccessfulbuild".
         Touching "Debug\esercizio4_10_11_2015.lastbuildstate".
     1>Done Building Project "C:\Users\s0000753177\Desktop\esercizio4_10_11_2015\esercizio4_10_11_2015\esercizio4_10_11_2015.vcxproj" (build target(s)).

Build succeeded.

Time Elapsed 00:00:00.53
